info face="Commodore64" size=32 bold=0 italic=0 charset="" unicode=0 stretchH=100 smooth=1 aa=1 padding=1,1,1,1 spacing=-2,-2
common lineHeight=35 base=24 scaleW=512 scaleH=512 pages=1 packed=0
page id=0 file="commodore_white.png"
chars count=154
char id=10      x=0    y=0    width=0    height=0    xoffset=-1   yoffset=0    xadvance=0    page=0    chnl=0 
char id=32      x=0    y=0    width=0    height=0    xoffset=-1   yoffset=0    xadvance=16   page=0    chnl=0 
char id=33      x=503  y=0    width=7    height=16   xoffset=4    yoffset=9    xadvance=16   page=0    chnl=0 
char id=34      x=101  y=68   width=15   height=8    xoffset=0    yoffset=9    xadvance=16   page=0    chnl=0 
char id=35      x=213  y=24   width=19   height=16   xoffset=-2   yoffset=9    xadvance=16   page=0    chnl=0 
char id=36      x=183  y=24   width=15   height=16   xoffset=0    yoffset=9    xadvance=16   page=0    chnl=0 
char id=37      x=198  y=24   width=15   height=16   xoffset=0    yoffset=9    xadvance=16   page=0    chnl=0 
char id=38      x=232  y=24   width=17   height=16   xoffset=-1   yoffset=9    xadvance=16   page=0    chnl=0 
char id=39      x=116  y=68   width=11   height=8    xoffset=2    yoffset=9    xadvance=16   page=0    chnl=0 
char id=40      x=75   y=24   width=11   height=16   xoffset=2    yoffset=9    xadvance=16   page=0    chnl=0 
char id=41      x=86   y=24   width=11   height=16   xoffset=2    yoffset=9    xadvance=16   page=0    chnl=0 
char id=42      x=169  y=56   width=19   height=12   xoffset=-2   yoffset=9    xadvance=16   page=0    chnl=0 
char id=43      x=154  y=56   width=15   height=12   xoffset=0    yoffset=11   xadvance=16   page=0    chnl=0 
char id=44      x=127  y=68   width=9    height=8    xoffset=3    yoffset=19   xadvance=16   page=0    chnl=0 
char id=45      x=136  y=68   width=15   height=4    xoffset=0    yoffset=15   xadvance=16   page=0    chnl=0 
char id=46      x=151  y=68   width=7    height=6    xoffset=4    yoffset=19   xadvance=16   page=0    chnl=0 
char id=47      x=149  y=24   width=19   height=16   xoffset=-2   yoffset=9    xadvance=16   page=0    chnl=0 
char id=48      x=45   y=24   width=15   height=16   xoffset=0    yoffset=9    xadvance=16   page=0    chnl=0 
char id=49      x=415  y=0    width=11   height=16   xoffset=2    yoffset=9    xadvance=16   page=0    chnl=0 
char id=50      x=426  y=0    width=15   height=16   xoffset=0    yoffset=9    xadvance=16   page=0    chnl=0 
char id=51      x=441  y=0    width=15   height=16   xoffset=0    yoffset=9    xadvance=16   page=0    chnl=0 
char id=52      x=456  y=0    width=17   height=16   xoffset=-1   yoffset=9    xadvance=16   page=0    chnl=0 
char id=53      x=473  y=0    width=15   height=16   xoffset=0    yoffset=9    xadvance=16   page=0    chnl=0 
char id=54      x=488  y=0    width=15   height=16   xoffset=0    yoffset=9    xadvance=16   page=0    chnl=0 
char id=55      x=0    y=24   width=15   height=16   xoffset=0    yoffset=9    xadvance=16   page=0    chnl=0 
char id=56      x=15   y=24   width=15   height=16   xoffset=0    yoffset=9    xadvance=16   page=0    chnl=0 
char id=57      x=30   y=24   width=15   height=16   xoffset=0    yoffset=9    xadvance=16   page=0    chnl=0 
char id=58      x=94   y=68   width=7    height=10   xoffset=4    yoffset=13   xadvance=16   page=0    chnl=0 
char id=59      x=501  y=24   width=9    height=14   xoffset=3    yoffset=13   xadvance=16   page=0    chnl=0 
char id=60      x=119  y=24   width=15   height=16   xoffset=0    yoffset=9    xadvance=16   page=0    chnl=0 
char id=61      x=136  y=68   width=15   height=8    xoffset=0    yoffset=13   xadvance=16   page=0    chnl=0 
char id=62      x=134  y=24   width=15   height=16   xoffset=0    yoffset=9    xadvance=16   page=0    chnl=0 
char id=63      x=60   y=24   width=15   height=16   xoffset=0    yoffset=9    xadvance=16   page=0    chnl=0 
char id=64      x=168  y=24   width=15   height=16   xoffset=0    yoffset=9    xadvance=16   page=0    chnl=0 
char id=65      x=12   y=0    width=15   height=16   xoffset=0    yoffset=9    xadvance=16   page=0    chnl=0 
char id=66      x=27   y=0    width=15   height=16   xoffset=0    yoffset=9    xadvance=16   page=0    chnl=0 
char id=67      x=42   y=0    width=15   height=16   xoffset=0    yoffset=9    xadvance=16   page=0    chnl=0 
char id=68      x=57   y=0    width=15   height=16   xoffset=0    yoffset=9    xadvance=16   page=0    chnl=0 
char id=69      x=72   y=0    width=15   height=16   xoffset=0    yoffset=9    xadvance=16   page=0    chnl=0 
char id=70      x=87   y=0    width=15   height=16   xoffset=0    yoffset=9    xadvance=16   page=0    chnl=0 
char id=71      x=102  y=0    width=15   height=16   xoffset=0    yoffset=9    xadvance=16   page=0    chnl=0 
char id=72      x=117  y=0    width=15   height=16   xoffset=0    yoffset=9    xadvance=16   page=0    chnl=0 
char id=73      x=132  y=0    width=11   height=16   xoffset=2    yoffset=9    xadvance=16   page=0    chnl=0 
char id=74      x=143  y=0    width=15   height=16   xoffset=0    yoffset=9    xadvance=16   page=0    chnl=0 
char id=75      x=158  y=0    width=15   height=16   xoffset=0    yoffset=9    xadvance=16   page=0    chnl=0 
char id=76      x=173  y=0    width=15   height=16   xoffset=0    yoffset=9    xadvance=16   page=0    chnl=0 
char id=77      x=188  y=0    width=17   height=16   xoffset=-1   yoffset=9    xadvance=16   page=0    chnl=0 
char id=78      x=205  y=0    width=15   height=16   xoffset=0    yoffset=9    xadvance=16   page=0    chnl=0 
char id=79      x=220  y=0    width=15   height=16   xoffset=0    yoffset=9    xadvance=16   page=0    chnl=0 
char id=80      x=235  y=0    width=15   height=16   xoffset=0    yoffset=9    xadvance=16   page=0    chnl=0 
char id=81      x=250  y=0    width=15   height=16   xoffset=0    yoffset=9    xadvance=16   page=0    chnl=0 
char id=82      x=265  y=0    width=15   height=16   xoffset=0    yoffset=9    xadvance=16   page=0    chnl=0 
char id=83      x=280  y=0    width=15   height=16   xoffset=0    yoffset=9    xadvance=16   page=0    chnl=0 
char id=84      x=295  y=0    width=15   height=16   xoffset=0    yoffset=9    xadvance=16   page=0    chnl=0 
char id=85      x=310  y=0    width=15   height=16   xoffset=0    yoffset=9    xadvance=16   page=0    chnl=0 
char id=86      x=325  y=0    width=15   height=16   xoffset=0    yoffset=9    xadvance=16   page=0    chnl=0 
char id=87      x=340  y=0    width=17   height=16   xoffset=-1   yoffset=9    xadvance=16   page=0    chnl=0 
char id=88      x=357  y=0    width=15   height=16   xoffset=0    yoffset=9    xadvance=16   page=0    chnl=0 
char id=89      x=372  y=0    width=15   height=16   xoffset=0    yoffset=9    xadvance=16   page=0    chnl=0 
char id=90      x=387  y=0    width=15   height=16   xoffset=0    yoffset=9    xadvance=16   page=0    chnl=0 
char id=91      x=97   y=24   width=11   height=16   xoffset=2    yoffset=9    xadvance=16   page=0    chnl=0 
char id=93      x=108  y=24   width=11   height=16   xoffset=2    yoffset=9    xadvance=16   page=0    chnl=0 
char id=96      x=0    y=0    width=12   height=24   xoffset=2    yoffset=1    xadvance=16   page=0    chnl=0 
char id=97      x=463  y=40   width=15   height=12   xoffset=0    yoffset=13   xadvance=16   page=0    chnl=0 
char id=98      x=278  y=40   width=15   height=14   xoffset=0    yoffset=11   xadvance=16   page=0    chnl=0 
char id=99      x=478  y=40   width=13   height=12   xoffset=1    yoffset=13   xadvance=16   page=0    chnl=0 
char id=100     x=293  y=40   width=15   height=14   xoffset=0    yoffset=11   xadvance=16   page=0    chnl=0 
char id=101     x=491  y=40   width=15   height=12   xoffset=0    yoffset=13   xadvance=16   page=0    chnl=0 
char id=102     x=308  y=40   width=13   height=14   xoffset=1    yoffset=11   xadvance=16   page=0    chnl=0 
char id=103     x=321  y=40   width=15   height=14   xoffset=0    yoffset=13   xadvance=16   page=0    chnl=0 
char id=104     x=336  y=40   width=15   height=14   xoffset=0    yoffset=11   xadvance=16   page=0    chnl=0 
char id=105     x=351  y=40   width=11   height=14   xoffset=2    yoffset=11   xadvance=16   page=0    chnl=0 
char id=106     x=402  y=0    width=13   height=16   xoffset=1    yoffset=11   xadvance=16   page=0    chnl=0 
char id=107     x=362  y=40   width=15   height=14   xoffset=0    yoffset=11   xadvance=16   page=0    chnl=0 
char id=108     x=377  y=40   width=11   height=14   xoffset=2    yoffset=11   xadvance=16   page=0    chnl=0 
char id=109     x=0    y=56   width=17   height=12   xoffset=-1   yoffset=13   xadvance=16   page=0    chnl=0 
char id=110     x=17   y=56   width=15   height=12   xoffset=0    yoffset=13   xadvance=16   page=0    chnl=0 
char id=111     x=32   y=56   width=15   height=12   xoffset=0    yoffset=13   xadvance=16   page=0    chnl=0 
char id=112     x=388  y=40   width=15   height=14   xoffset=0    yoffset=13   xadvance=16   page=0    chnl=0 
char id=113     x=403  y=40   width=15   height=14   xoffset=0    yoffset=13   xadvance=16   page=0    chnl=0 
char id=114     x=47   y=56   width=15   height=12   xoffset=0    yoffset=13   xadvance=16   page=0    chnl=0 
char id=115     x=62   y=56   width=15   height=12   xoffset=0    yoffset=13   xadvance=16   page=0    chnl=0 
char id=116     x=418  y=40   width=15   height=14   xoffset=0    yoffset=11   xadvance=16   page=0    chnl=0 
char id=117     x=77   y=56   width=15   height=12   xoffset=0    yoffset=13   xadvance=16   page=0    chnl=0 
char id=118     x=92   y=56   width=15   height=12   xoffset=0    yoffset=13   xadvance=16   page=0    chnl=0 
char id=119     x=107  y=56   width=17   height=12   xoffset=-1   yoffset=13   xadvance=16   page=0    chnl=0 
char id=120     x=124  y=56   width=15   height=12   xoffset=0    yoffset=13   xadvance=16   page=0    chnl=0 
char id=121     x=433  y=40   width=15   height=14   xoffset=0    yoffset=13   xadvance=16   page=0    chnl=0 
char id=122     x=139  y=56   width=15   height=12   xoffset=0    yoffset=13   xadvance=16   page=0    chnl=0 
char id=1025    x=248  y=40   width=15   height=16   xoffset=0    yoffset=9    xadvance=16   page=0    chnl=0 
char id=1040    x=0    y=40   width=15   height=16   xoffset=0    yoffset=9    xadvance=16   page=0    chnl=0 
char id=1041    x=216  y=40   width=15   height=16   xoffset=0    yoffset=9    xadvance=16   page=0    chnl=0 
char id=1042    x=486  y=24   width=15   height=16   xoffset=0    yoffset=9    xadvance=16   page=0    chnl=0 
char id=1043    x=373  y=24   width=15   height=16   xoffset=0    yoffset=9    xadvance=16   page=0    chnl=0 
char id=1044    x=75   y=40   width=17   height=16   xoffset=-1   yoffset=9    xadvance=16   page=0    chnl=0 
char id=1045    x=343  y=24   width=15   height=16   xoffset=0    yoffset=9    xadvance=16   page=0    chnl=0 
char id=1046    x=92   y=40   width=17   height=16   xoffset=-1   yoffset=9    xadvance=16   page=0    chnl=0 
char id=1047    x=422  y=24   width=15   height=16   xoffset=0    yoffset=9    xadvance=16   page=0    chnl=0 
char id=1048    x=171  y=40   width=15   height=16   xoffset=0    yoffset=9    xadvance=16   page=0    chnl=0 
char id=1049    x=281  y=24   width=15   height=16   xoffset=0    yoffset=9    xadvance=16   page=0    chnl=0 
char id=1050    x=328  y=24   width=15   height=16   xoffset=0    yoffset=9    xadvance=16   page=0    chnl=0 
char id=1051    x=60   y=40   width=15   height=16   xoffset=0    yoffset=9    xadvance=16   page=0    chnl=0 
char id=1052    x=154  y=40   width=17   height=16   xoffset=-1   yoffset=9    xadvance=16   page=0    chnl=0 
char id=1053    x=358  y=24   width=15   height=16   xoffset=0    yoffset=9    xadvance=16   page=0    chnl=0 
char id=1054    x=45   y=40   width=15   height=16   xoffset=0    yoffset=9    xadvance=16   page=0    chnl=0 
char id=1055    x=15   y=40   width=15   height=16   xoffset=0    yoffset=9    xadvance=16   page=0    chnl=0 
char id=1056    x=30   y=40   width=15   height=16   xoffset=0    yoffset=9    xadvance=16   page=0    chnl=0 
char id=1057    x=139  y=40   width=15   height=16   xoffset=0    yoffset=9    xadvance=16   page=0    chnl=0 
char id=1058    x=186  y=40   width=15   height=16   xoffset=0    yoffset=9    xadvance=16   page=0    chnl=0 
char id=1059    x=313  y=24   width=15   height=16   xoffset=0    yoffset=9    xadvance=16   page=0    chnl=0 
char id=1060    x=264  y=24   width=17   height=16   xoffset=-1   yoffset=9    xadvance=16   page=0    chnl=0 
char id=1061    x=437  y=24   width=15   height=16   xoffset=0    yoffset=9    xadvance=16   page=0    chnl=0 
char id=1062    x=296  y=24   width=17   height=16   xoffset=-1   yoffset=9    xadvance=16   page=0    chnl=0 
char id=1064    x=388  y=24   width=17   height=16   xoffset=-1   yoffset=9    xadvance=16   page=0    chnl=0 
char id=1065    x=405  y=24   width=17   height=16   xoffset=-1   yoffset=9    xadvance=16   page=0    chnl=0 
char id=1066    x=452  y=24   width=17   height=16   xoffset=-1   yoffset=9    xadvance=16   page=0    chnl=0 
char id=1067    x=469  y=24   width=17   height=16   xoffset=-1   yoffset=9    xadvance=16   page=0    chnl=0 
char id=1068    x=201  y=40   width=15   height=16   xoffset=0    yoffset=9    xadvance=16   page=0    chnl=0 
char id=1069    x=109  y=40   width=15   height=16   xoffset=0    yoffset=9    xadvance=16   page=0    chnl=0 
char id=1070    x=231  y=40   width=17   height=16   xoffset=-1   yoffset=9    xadvance=16   page=0    chnl=0 
char id=1071    x=124  y=40   width=15   height=16   xoffset=0    yoffset=9    xadvance=16   page=0    chnl=0 
char id=1072    x=374  y=56   width=15   height=12   xoffset=0    yoffset=13   xadvance=16   page=0    chnl=0 
char id=1073    x=448  y=40   width=15   height=14   xoffset=0    yoffset=11   xadvance=16   page=0    chnl=0 
char id=1074    x=359  y=56   width=15   height=12   xoffset=0    yoffset=13   xadvance=16   page=0    chnl=0 
char id=1075    x=248  y=56   width=13   height=12   xoffset=1    yoffset=13   xadvance=16   page=0    chnl=0 
char id=1076    x=434  y=56   width=17   height=12   xoffset=-1   yoffset=13   xadvance=16   page=0    chnl=0 
char id=1077    x=218  y=56   width=15   height=12   xoffset=0    yoffset=13   xadvance=16   page=0    chnl=0 
char id=1078    x=451  y=56   width=17   height=12   xoffset=-1   yoffset=13   xadvance=16   page=0    chnl=0 
char id=1079    x=295  y=56   width=15   height=12   xoffset=0    yoffset=13   xadvance=16   page=0    chnl=0 
char id=1080    x=32   y=68   width=15   height=12   xoffset=0    yoffset=13   xadvance=16   page=0    chnl=0 
char id=1081    x=249  y=24   width=15   height=16   xoffset=0    yoffset=9    xadvance=16   page=0    chnl=0 
char id=1082    x=203  y=56   width=15   height=12   xoffset=0    yoffset=13   xadvance=16   page=0    chnl=0 
char id=1083    x=419  y=56   width=15   height=12   xoffset=0    yoffset=13   xadvance=16   page=0    chnl=0 
char id=1084    x=15   y=68   width=17   height=12   xoffset=-1   yoffset=13   xadvance=16   page=0    chnl=0 
char id=1085    x=233  y=56   width=15   height=12   xoffset=0    yoffset=13   xadvance=16   page=0    chnl=0 
char id=1086    x=404  y=56   width=15   height=12   xoffset=0    yoffset=13   xadvance=16   page=0    chnl=0 
char id=1087    x=389  y=56   width=15   height=12   xoffset=0    yoffset=13   xadvance=16   page=0    chnl=0 
char id=1088    x=388  y=40   width=15   height=14   xoffset=0    yoffset=13   xadvance=16   page=0    chnl=0 
char id=1089    x=498  y=56   width=13   height=12   xoffset=1    yoffset=13   xadvance=16   page=0    chnl=0 
char id=1090    x=47   y=68   width=15   height=12   xoffset=0    yoffset=13   xadvance=16   page=0    chnl=0 
char id=1091    x=433  y=40   width=15   height=14   xoffset=0    yoffset=13   xadvance=16   page=0    chnl=0 
char id=1092    x=264  y=24   width=17   height=16   xoffset=-1   yoffset=11   xadvance=16   page=0    chnl=0 
char id=1093    x=310  y=56   width=15   height=12   xoffset=0    yoffset=13   xadvance=16   page=0    chnl=0 
char id=1094    x=188  y=56   width=15   height=12   xoffset=0    yoffset=13   xadvance=16   page=0    chnl=0 
char id=1095    x=0    y=68   width=15   height=12   xoffset=0    yoffset=13   xadvance=16   page=0    chnl=0 
char id=1096    x=261  y=56   width=17   height=12   xoffset=-1   yoffset=13   xadvance=16   page=0    chnl=0 
char id=1097    x=278  y=56   width=17   height=12   xoffset=-1   yoffset=13   xadvance=16   page=0    chnl=0 
char id=1098    x=325  y=56   width=17   height=12   xoffset=-1   yoffset=13   xadvance=16   page=0    chnl=0 
char id=1099    x=342  y=56   width=17   height=12   xoffset=-1   yoffset=13   xadvance=16   page=0    chnl=0 
char id=1100    x=62   y=68   width=15   height=12   xoffset=0    yoffset=13   xadvance=16   page=0    chnl=0 
char id=1101    x=468  y=56   width=15   height=12   xoffset=0    yoffset=13   xadvance=16   page=0    chnl=0 
char id=1102    x=77   y=68   width=17   height=12   xoffset=-1   yoffset=13   xadvance=16   page=0    chnl=0 
char id=1103    x=483  y=56   width=15   height=12   xoffset=0    yoffset=13   xadvance=16   page=0    chnl=0 
char id=1105    x=263  y=40   width=15   height=16   xoffset=0    yoffset=9    xadvance=16   page=0    chnl=0 
kernings count=0
